<?xml version="1.0" encoding="UTF-8"?>
<svg width="40px" height="40px" viewBox="0 0 40 40" version="1.1" xmlns="http://www.w3.org/2000/svg" xmlns:xlink="http://www.w3.org/1999/xlink">
    <!-- Generator: Sketch 54.1 (76490) - https://sketchapp.com -->
    <title>in corso</title>
    <desc>Created with Sketch.</desc>
    <defs>
        <polygon id="path-1" points="0 0 40 0 40 40 0 40"></polygon>
    </defs>
    <g id="in-corso" stroke="none" stroke-width="1" fill="none" fill-rule="evenodd">
        <g id="baseline-timeline-24px-copy">
            <mask id="mask-2" fill="white">
                <use xlink:href="#path-1"></use>
            </mask>
            <g id="a"></g>
            <path d="M39,13.3333333 C39,15.1666667 37.4863636,16.6666667 35.6363636,16.6666667 C35.3336364,16.6666667 35.0477273,16.6333333 34.7786364,16.55 L28.7913636,22.4666667 C28.8754545,22.7333333 28.9090909,23.0333333 28.9090909,23.3333333 C28.9090909,25.1666667 27.3954545,26.6666667 25.5454545,26.6666667 C23.6954545,26.6666667 22.1818182,25.1666667 22.1818182,23.3333333 C22.1818182,23.0333333 22.2154545,22.7333333 22.2995455,22.4666667 L18.0109091,18.2166667 C17.7418182,18.3 17.4390909,18.3333333 17.1363636,18.3333333 C16.8336364,18.3333333 16.5309091,18.3 16.2618182,18.2166667 L8.60954545,25.8166667 C8.69363636,26.0833333 8.72727273,26.3666667 8.72727273,26.6666667 C8.72727273,28.5 7.21363636,30 5.36363636,30 C3.51363636,30 2,28.5 2,26.6666667 C2,24.8333333 3.51363636,23.3333333 5.36363636,23.3333333 C5.66636364,23.3333333 5.95227273,23.3666667 6.22136364,23.45 L13.8904545,15.8666667 C13.8063636,15.6 13.7727273,15.3 13.7727273,15 C13.7727273,13.1666667 15.2863636,11.6666667 17.1363636,11.6666667 C18.9863636,11.6666667 20.5,13.1666667 20.5,15 C20.5,15.3 20.4663636,15.6 20.3822727,15.8666667 L24.6709091,20.1166667 C24.94,20.0333333 25.2427273,20 25.5454545,20 C25.8481818,20 26.1509091,20.0333333 26.42,20.1166667 L32.3904545,14.1833333 C32.3063636,13.9166667 32.2727273,13.6333333 32.2727273,13.3333333 C32.2727273,11.5 33.7863636,10 35.6363636,10 C37.4863636,10 39,11.5 39,13.3333333 Z" id="Path" fill="#F7B500" fill-rule="nonzero" mask="url(#mask-2)"></path>
        </g>
    </g>
</svg>